Proyectos/lab3/gates2/simulation/qsim/gates2.msim.vcd
$comment
	File created using the following command:
		vcd file gates2.msim.vcd -direction
$end
$date
	Wed Mar 04 20:36:21 2020
$end
$version
	ModelSim Version 10.5b
$end
$timescale
	1ps
$end

$scope module gates2_vhd_vec_tst $end
$var wire 1 ! LED [0] $end
$var wire 1 " LED [1] $end
$var wire 1 # LED [2] $end
$var wire 1 $ LED [3] $end
$var wire 1 % LED [4] $end
$var wire 1 & LED [5] $end
$var wire 1 ' LED [6] $end
$var wire 1 ( LED [7] $end
$var wire 1 ) SW [0] $end
$var wire 1 * SW [1] $end

$scope module i1 $end
$var wire 1 + gnd $end
$var wire 1 , vcc $end
$var wire 1 - unknown $end
$var wire 1 . devoe $end
$var wire 1 / devclrn $end
$var wire 1 0 devpor $end
$var wire 1 1 ww_devoe $end
$var wire 1 2 ww_devclrn $end
$var wire 1 3 ww_devpor $end
$var wire 1 4 ww_SW [0] $end
$var wire 1 5 ww_SW [1] $end
$var wire 1 6 ww_LED [0] $end
$var wire 1 7 ww_LED [1] $end
$var wire 1 8 ww_LED [2] $end
$var wire 1 9 ww_LED [3] $end
$var wire 1 : ww_LED [4] $end
$var wire 1 ; ww_LED [5] $end
$var wire 1 < ww_LED [6] $end
$var wire 1 = ww_LED [7] $end
$var wire 1 > \LED[7]~output_o\ $end
$var wire 1 ? \LED[6]~output_o\ $end
$var wire 1 @ \LED[5]~output_o\ $end
$var wire 1 A \LED[4]~output_o\ $end
$var wire 1 B \LED[3]~output_o\ $end
$var wire 1 C \LED[2]~output_o\ $end
$var wire 1 D \LED[1]~output_o\ $end
$var wire 1 E \LED[0]~output_o\ $end
$var wire 1 F \SW[1]~input_o\ $end
$var wire 1 G \SW[0]~input_o\ $end
$var wire 1 H \LED~0_combout\ $end
$var wire 1 I \LED~1_combout\ $end
$var wire 1 J \LED~2_combout\ $end
$upscope $end
$upscope $end
$enddefinitions $end
#0
$dumpvars
0+
1,
x-
1.
1/
10
11
12
13
0>
0?
0@
0A
0B
0C
0D
0E
0F
0G
0H
0I
0J
0)
0*
0!
0"
0#
0$
0%
0&
0'
0(
04
05
06
07
08
09
0:
0;
0<
0=
$end
#500000
1*
15
1F
1H
1I
1>
1=
1D
1C
1(
17
18
1#
1"
#1000000
0*
1)
05
14
1G
0F
0>
1?
0=
1<
0(
1'
#1500000
1*
15
1F
0H
1J
1>
1=
1E
0C
1(
16
08
0#
1!
#2000000
0*
0)
05
04
0G
0F
0I
0J
0>
0?
0=
0<
0E
0D
0(
0'
06
07
0"
0!
#2500000
1*
15
1F
1H
1I
1>
1=
1D
1C
1(
17
18
1#
1"
#3000000
0*
1)
05
14
1G
0F
0>
1?
0=
1<
0(
1'
#3500000
1*
15
1F
0H
1J
1>
1=
1E
0C
1(
16
08
0#
1!
#4000000
0*
0)
05
04
0G
0F
0I
0J
0>
0?
0=
0<
0E
0D
0(
0'
06
07
0"
0!
#4500000
1*
15
1F
1H
1I
1>
1=
1D
1C
1(
17
18
1#
1"
#5000000
0*
1)
05
14
1G
0F
0>
1?
0=
1<
0(
1'
#5500000
1*
15
1F
0H
1J
1>
1=
1E
0C
1(
16
08
0#
1!
#6000000
0*
0)
05
04
0G
0F
0I
0J
0>
0?
0=
0<
0E
0D
0(
0'
06
07
0"
0!
#6500000
1*
15
1F
1H
1I
1>
1=
1D
1C
1(
17
18
1#
1"
#7000000
0*
1)
05
14
1G
0F
0>
1?
0=
1<
0(
1'
#7500000
1*
15
1F
0H
1J
1>
1=
1E
0C
1(
16
08
0#
1!
#8000000
0*
0)
05
04
0G
0F
0I
0J
0>
0?
0=
0<
0E
0D
0(
0'
06
07
0"
0!
#8500000
1*
15
1F
1H
1I
1>
1=
1D
1C
1(
17
18
1#
1"
#9000000
0*
1)
05
14
1G
0F
0>
1?
0=
1<
0(
1'
#9500000
1*
15
1F
0H
1J
1>
1=
1E
0C
1(
16
08
0#
1!
