Proyectos/lab6/DecodificadorDisplay/simulation/qsim/DecodificadorDisplay.msim.vcd
$comment
	File created using the following command:
		vcd file DecodificadorDisplay.msim.vcd -direction
$end
$date
	Sat Apr 18 18:33:02 2020
$end
$version
	ModelSim Version 10.5b
$end
$timescale
	1ps
$end

$scope module lab6_vhd_vec_tst $end
$var wire 1 ! DIP_SW [5] $end
$var wire 1 " DIP_SW [6] $end
$var wire 1 # DIP_SW [7] $end
$var wire 1 $ DIP_SW [8] $end
$var wire 1 % DISP [1] $end
$var wire 1 & DISP [2] $end
$var wire 1 ' DISP [3] $end
$var wire 1 ( DISP [4] $end
$var wire 1 ) DISP [5] $end
$var wire 1 * DISP [6] $end
$var wire 1 + DISP [7] $end
$var wire 1 , DP $end
$var wire 1 - KEY_EX $end

$scope module i1 $end
$var wire 1 . gnd $end
$var wire 1 / vcc $end
$var wire 1 0 unknown $end
$var wire 1 1 devoe $end
$var wire 1 2 devclrn $end
$var wire 1 3 devpor $end
$var wire 1 4 ww_devoe $end
$var wire 1 5 ww_devclrn $end
$var wire 1 6 ww_devpor $end
$var wire 1 7 ww_DIP_SW [5] $end
$var wire 1 8 ww_DIP_SW [6] $end
$var wire 1 9 ww_DIP_SW [7] $end
$var wire 1 : ww_DIP_SW [8] $end
$var wire 1 ; ww_KEY_EX $end
$var wire 1 < ww_DP $end
$var wire 1 = ww_DISP [1] $end
$var wire 1 > ww_DISP [2] $end
$var wire 1 ? ww_DISP [3] $end
$var wire 1 @ ww_DISP [4] $end
$var wire 1 A ww_DISP [5] $end
$var wire 1 B ww_DISP [6] $end
$var wire 1 C ww_DISP [7] $end
$var wire 1 D \DP~output_o\ $end
$var wire 1 E \DISP[7]~output_o\ $end
$var wire 1 F \DISP[6]~output_o\ $end
$var wire 1 G \DISP[5]~output_o\ $end
$var wire 1 H \DISP[4]~output_o\ $end
$var wire 1 I \DISP[3]~output_o\ $end
$var wire 1 J \DISP[2]~output_o\ $end
$var wire 1 K \DISP[1]~output_o\ $end
$var wire 1 L \DIP_SW[6]~input_o\ $end
$var wire 1 M \DIP_SW[5]~input_o\ $end
$var wire 1 N \DIP_SW[7]~input_o\ $end
$var wire 1 O \DIP_SW[8]~input_o\ $end
$var wire 1 P \dec|LessThan0~0_combout\ $end
$var wire 1 Q \KEY_EX~input_o\ $end
$var wire 1 R \dec|Mux6~0_combout\ $end
$var wire 1 S \dec|display[7]~0_combout\ $end
$var wire 1 T \dec|Mux5~0_combout\ $end
$var wire 1 U \dec|display[6]~1_combout\ $end
$var wire 1 V \dec|Mux4~0_combout\ $end
$var wire 1 W \dec|display[5]~2_combout\ $end
$var wire 1 X \dec|Mux3~0_combout\ $end
$var wire 1 Y \dec|display[4]~3_combout\ $end
$var wire 1 Z \dec|Mux2~0_combout\ $end
$var wire 1 [ \dec|display[3]~4_combout\ $end
$var wire 1 \ \dec|Mux1~0_combout\ $end
$var wire 1 ] \dec|display[2]~5_combout\ $end
$var wire 1 ^ \dec|Mux0~0_combout\ $end
$var wire 1 _ \dec|display[1]~6_combout\ $end
$var wire 1 ` \dec|ALT_INV_LessThan0~0_combout\ $end
$upscope $end
$upscope $end
$enddefinitions $end
#0
$dumpvars
0,
1-
0.
1/
x0
11
12
13
14
15
16
1;
0<
0D
0E
1F
1G
1H
1I
1J
1K
0L
0M
0N
0O
1P
1Q
0R
0S
0T
1U
0V
1W
0X
1Y
0Z
1[
0\
1]
0^
1_
0`
0!
0"
0#
0$
07
08
09
0:
1=
1>
1?
1@
1A
1B
0C
1%
1&
1'
1(
1)
1*
0+
$end
#5000
1$
1:
1O
1T
1V
1X
1^
0_
0Y
0W
0U
0F
0G
0H
0K
0B
0A
0@
0=
0*
0)
0(
0%
#10000
0$
1#
0:
19
1N
0O
1R
0V
0X
1Z
0^
1_
0[
1Y
1W
1S
1E
1G
1H
0I
1K
1C
1A
1@
0?
1=
1+
1)
1(
0'
1%
#15000
1$
1:
1O
1V
0Z
1[
0W
0G
1I
0A
1?
0)
1'
#20000
0$
0#
1"
0:
09
18
1L
0N
0O
0T
1X
1^
0_
0Y
1U
1F
0H
0K
1B
0@
0=
1*
0(
0%
#25000
1$
1:
1O
0X
1\
0^
1_
0]
1Y
1H
0J
1K
1@
0>
1=
1(
0&
1%
#30000
0$
1#
0:
19
1N
0O
0V
1W
1G
1A
1)
#35000
1$
1:
1O
0R
1T
1V
1X
0\
1]
0Y
0W
0U
0S
0E
0F
0G
0H
1J
0C
0B
0A
0@
1>
0+
0*
0)
0(
1&
#40000
0$
0#
0"
1!
0:
09
08
17
1M
0L
0N
0O
1R
0T
0V
0X
1Y
1W
1U
1S
1E
1F
1G
1H
1C
1B
1A
1@
1+
1*
1)
1(
#45000
1$
1:
1O
0P
1V
1`
0W
1D
0G
1<
0A
1,
0)
#50000
0$
1#
0:
19
1N
0O
0V
1X
0Y
1W
1G
0H
1A
0@
1)
0(
#55000
1$
1:
1O
0X
1\
1^
0_
0]
1Y
1H
0J
0K
1@
0>
0=
1(
0&
0%
#60000
0$
0#
1"
0:
09
18
1L
0N
0O
0R
1Z
0^
1_
0[
0S
0E
0I
1K
0C
0?
1=
0+
0'
1%
#65000
1$
1:
1O
1R
1T
0Z
0\
1^
0_
1]
1[
0U
1S
1E
0F
1I
1J
0K
1C
0B
1?
1>
0=
1+
0*
1'
1&
0%
#70000
0$
1#
0:
19
1N
0O
0T
1Z
1\
0^
1_
0]
0[
1U
1F
0I
0J
1K
1B
0?
0>
1=
1*
0'
0&
1%
#75000
1$
1:
1O
1X
0Y
0H
0@
0(
#80000
0$
0#
0"
0!
0:
09
08
07
0M
0L
0N
0O
1P
0R
0X
0Z
0\
0`
1]
1[
1Y
0S
0D
0E
1H
1I
1J
0<
0C
1@
1?
1>
0,
0+
1(
1'
1&
#85000
1$
1:
1O
1T
1V
1X
1^
0_
0Y
0W
0U
0F
0G
0H
0K
0B
0A
0@
0=
0*
0)
0(
0%
#90000
0$
1#
0:
19
1N
0O
1R
0V
0X
1Z
0^
1_
0[
1Y
1W
1S
1E
1G
1H
0I
1K
1C
1A
1@
0?
1=
1+
1)
1(
0'
1%
#95000
1$
1:
1O
1V
0Z
1[
0W
0G
1I
0A
1?
0)
1'
#100000
0$
0#
1"
0:
09
18
1L
0N
0O
0T
1X
1^
0_
0Y
1U
1F
0H
0K
1B
0@
0=
1*
0(
0%
#105000
1$
1:
1O
0X
1\
0^
1_
0]
1Y
1H
0J
1K
1@
0>
1=
1(
0&
1%
#110000
0$
1#
0:
19
1N
0O
0V
1W
1G
1A
1)
#115000
1$
1:
1O
0R
1T
1V
1X
0\
1]
0Y
0W
0U
0S
0E
0F
0G
0H
1J
0C
0B
0A
0@
1>
0+
0*
0)
0(
1&
#120000
0$
0#
0"
1!
0:
09
08
17
1M
0L
0N
0O
1R
0T
0V
0X
1Y
1W
1U
1S
1E
1F
1G
1H
1C
1B
1A
1@
1+
1*
1)
1(
#125000
1$
1:
1O
0P
1V
1`
0W
1D
0G
1<
0A
1,
0)
#130000
0$
1#
0:
19
1N
0O
0V
1X
0Y
1W
1G
0H
1A
0@
1)
0(
#135000
1$
1:
1O
0X
1\
1^
0_
0]
1Y
1H
0J
0K
1@
0>
0=
1(
0&
0%
#140000
0$
0#
1"
0:
09
18
1L
0N
0O
0R
1Z
0^
1_
0[
0S
0E
0I
1K
0C
0?
1=
0+
0'
1%
#145000
1$
1:
1O
1R
1T
0Z
0\
1^
0_
1]
1[
0U
1S
1E
0F
1I
1J
0K
1C
0B
1?
1>
0=
1+
0*
1'
1&
0%
#150000
0$
1#
0:
19
1N
0O
0T
1Z
1\
0^
1_
0]
0[
1U
1F
0I
0J
1K
1B
0?
0>
1=
1*
0'
0&
1%
#155000
1$
1:
1O
1X
0Y
0H
0@
0(
#160000
0$
0#
0"
0!
0-
0:
09
08
07
0;
0Q
0M
0L
0N
0O
1P
0R
0X
0Z
0\
0S
0U
0W
0_
0`
0K
0G
0F
0E
0D
0=
0A
0B
0C
0<
0+
0*
0)
0%
0,
#165000
1$
1:
1O
1T
1V
1X
1^
#170000
0$
1#
0:
19
1N
0O
1R
0V
0X
1Z
0^
#175000
1$
1:
1O
1V
0Z
#180000
0$
0#
1"
0:
09
18
1L
0N
0O
0T
1X
1^
#185000
1$
1:
1O
0X
1\
0^
#190000
0$
1#
0:
19
1N
0O
0V
#195000
1$
1:
1O
0R
1T
1V
1X
0\
#200000
0$
0#
0"
1!
0:
09
08
17
1M
0L
0N
0O
1R
0T
0V
0X
#205000
1$
1:
1O
0P
1V
1`
1D
1<
1,
#210000
0$
1#
0:
19
1N
0O
0V
1X
#215000
1$
1:
1O
0X
1\
1^
#220000
0$
0#
1"
0:
09
18
1L
0N
0O
0R
1Z
0^
#225000
1$
1:
1O
1R
1T
0Z
0\
1^
#230000
0$
1#
0:
19
1N
0O
0T
1Z
1\
0^
#235000
1$
1:
1O
1X
#240000
0$
0#
0"
0!
0:
09
08
07
0M
0L
0N
0O
1P
0R
0X
0Z
0\
0`
0D
0<
0,
#245000
1$
1:
1O
1T
1V
1X
1^
#250000
0$
1#
0:
19
1N
0O
1R
0V
0X
1Z
0^
#255000
1$
1:
1O
1V
0Z
#260000
0$
0#
1"
0:
09
18
1L
0N
0O
0T
1X
1^
#265000
1$
1:
1O
0X
1\
0^
#270000
0$
1#
0:
19
1N
0O
0V
#275000
1$
1:
1O
0R
1T
1V
1X
0\
#280000
0$
0#
0"
1!
0:
09
08
17
1M
0L
0N
0O
1R
0T
0V
0X
#285000
1$
1:
1O
0P
1V
1`
1D
1<
1,
#290000
0$
1#
0:
19
1N
0O
0V
1X
#295000
1$
1:
1O
0X
1\
1^
#300000
0$
0#
1"
0:
09
18
1L
0N
0O
0R
1Z
0^
#305000
1$
1:
1O
1R
1T
0Z
0\
1^
#310000
0$
1#
0:
19
1N
0O
0T
1Z
1\
0^
#315000
1$
1:
1O
1X
#320000
0$
0#
0"
0!
1-
0:
09
08
07
1;
1Q
0M
0L
0N
0O
1P
0R
0X
0Z
0\
1S
1U
1W
1_
0`
1]
1[
1Y
0S
1K
1G
1F
1E
0D
1=
1A
1B
1C
0E
1H
1I
1J
0<
1+
1*
1)
1%
0C
1@
1?
1>
0,
0+
1(
1'
1&
#325000
1$
1:
1O
1T
1V
1X
1^
0_
0Y
0W
0U
0F
0G
0H
0K
0B
0A
0@
0=
0*
0)
0(
0%
#330000
0$
1#
0:
19
1N
0O
1R
0V
0X
1Z
0^
1_
0[
1Y
1W
1S
1E
1G
1H
0I
1K
1C
1A
1@
0?
1=
1+
1)
1(
0'
1%
#335000
1$
1:
1O
1V
0Z
1[
0W
0G
1I
0A
1?
0)
1'
#340000
0$
0#
1"
0:
09
18
1L
0N
0O
0T
1X
1^
0_
0Y
1U
1F
0H
0K
1B
0@
0=
1*
0(
0%
#345000
1$
1:
1O
0X
1\
0^
1_
0]
1Y
1H
0J
1K
1@
0>
1=
1(
0&
1%
#350000
0$
1#
0:
19
1N
0O
0V
1W
1G
1A
1)
#355000
1$
1:
1O
0R
1T
1V
1X
0\
1]
0Y
0W
0U
0S
0E
0F
0G
0H
1J
0C
0B
0A
0@
1>
0+
0*
0)
0(
1&
#360000
0$
0#
0"
1!
0:
09
08
17
1M
0L
0N
0O
1R
0T
0V
0X
1Y
1W
1U
1S
1E
1F
1G
1H
1C
1B
1A
1@
1+
1*
1)
1(
#365000
1$
1:
1O
0P
1V
1`
0W
1D
0G
1<
0A
1,
0)
#370000
0$
1#
0:
19
1N
0O
0V
1X
0Y
1W
1G
0H
1A
0@
1)
0(
#375000
1$
1:
1O
0X
1\
1^
0_
0]
1Y
1H
0J
0K
1@
0>
0=
1(
0&
0%
#380000
0$
0#
1"
0:
09
18
1L
0N
0O
0R
1Z
0^
1_
0[
0S
0E
0I
1K
0C
0?
1=
0+
0'
1%
#385000
1$
1:
1O
1R
1T
0Z
0\
1^
0_
1]
1[
0U
1S
1E
0F
1I
1J
0K
1C
0B
1?
1>
0=
1+
0*
1'
1&
0%
#390000
0$
1#
0:
19
1N
0O
0T
1Z
1\
0^
1_
0]
0[
1U
1F
0I
0J
1K
1B
0?
0>
1=
1*
0'
0&
1%
#395000
1$
1:
1O
1X
0Y
0H
0@
0(
#400000
0$
0#
0"
0!
0:
09
08
07
0M
0L
0N
0O
1P
0R
0X
0Z
0\
0`
1]
1[
1Y
0S
0D
0E
1H
1I
1J
0<
0C
1@
1?
1>
0,
0+
1(
1'
1&
#405000
1$
1:
1O
1T
1V
1X
1^
0_
0Y
0W
0U
0F
0G
0H
0K
0B
0A
0@
0=
0*
0)
0(
0%
#410000
0$
1#
0:
19
1N
0O
1R
0V
0X
1Z
0^
1_
0[
1Y
1W
1S
1E
1G
1H
0I
1K
1C
1A
1@
0?
1=
1+
1)
1(
0'
1%
#415000
1$
1:
1O
1V
0Z
1[
0W
0G
1I
0A
1?
0)
1'
#420000
0$
0#
1"
0:
09
18
1L
0N
0O
0T
1X
1^
0_
0Y
1U
1F
0H
0K
1B
0@
0=
1*
0(
0%
#425000
1$
1:
1O
0X
1\
0^
1_
0]
1Y
1H
0J
1K
1@
0>
1=
1(
0&
1%
#430000
0$
1#
0:
19
1N
0O
0V
1W
1G
1A
1)
#435000
1$
1:
1O
0R
1T
1V
1X
0\
1]
0Y
0W
0U
0S
0E
0F
0G
0H
1J
0C
0B
0A
0@
1>
0+
0*
0)
0(
1&
#440000
0$
0#
0"
1!
0:
09
08
17
1M
0L
0N
0O
1R
0T
0V
0X
1Y
1W
1U
1S
1E
1F
1G
1H
1C
1B
1A
1@
1+
1*
1)
1(
#445000
1$
1:
1O
0P
1V
1`
0W
1D
0G
1<
0A
1,
0)
#450000
0$
1#
0:
19
1N
0O
0V
1X
0Y
1W
1G
0H
1A
0@
1)
0(
#455000
1$
1:
1O
0X
1\
1^
0_
0]
1Y
1H
0J
0K
1@
0>
0=
1(
0&
0%
#460000
0$
0#
1"
0:
09
18
1L
0N
0O
0R
1Z
0^
1_
0[
0S
0E
0I
1K
0C
0?
1=
0+
0'
1%
#465000
1$
1:
1O
1R
1T
0Z
0\
1^
0_
1]
1[
0U
1S
1E
0F
1I
1J
0K
1C
0B
1?
1>
0=
1+
0*
1'
1&
0%
#470000
0$
1#
0:
19
1N
0O
0T
1Z
1\
0^
1_
0]
0[
1U
1F
0I
0J
1K
1B
0?
0>
1=
1*
0'
0&
1%
#475000
1$
1:
1O
1X
0Y
0H
0@
0(
