Proyectos/lab5/mux_4x1/simulation/qsim/mux_4x1.msim.vcd
$comment
	File created using the following command:
		vcd file mux_4x1.msim.vcd -direction
$end
$date
	Sat Apr 04 19:35:17 2020
$end
$version
	ModelSim Version 10.5b
$end
$timescale
	1ps
$end

$scope module mux_4x1_vhd_vec_tst $end
$var wire 1 ! DIP_SW [5] $end
$var wire 1 " DIP_SW [6] $end
$var wire 1 # DIP_SW [7] $end
$var wire 1 $ DIP_SW [8] $end
$var wire 1 % KEY_EX [0] $end
$var wire 1 & KEY_EX [1] $end
$var wire 1 ' VERDE $end

$scope module i1 $end
$var wire 1 ( gnd $end
$var wire 1 ) vcc $end
$var wire 1 * unknown $end
$var wire 1 + devoe $end
$var wire 1 , devclrn $end
$var wire 1 - devpor $end
$var wire 1 . ww_devoe $end
$var wire 1 / ww_devclrn $end
$var wire 1 0 ww_devpor $end
$var wire 1 1 ww_DIP_SW [5] $end
$var wire 1 2 ww_DIP_SW [6] $end
$var wire 1 3 ww_DIP_SW [7] $end
$var wire 1 4 ww_DIP_SW [8] $end
$var wire 1 5 ww_KEY_EX [0] $end
$var wire 1 6 ww_KEY_EX [1] $end
$var wire 1 7 ww_VERDE $end
$var wire 1 8 \VERDE~output_o\ $end
$var wire 1 9 \KEY_EX[0]~input_o\ $end
$var wire 1 : \DIP_SW[8]~input_o\ $end
$var wire 1 ; \DIP_SW[7]~input_o\ $end
$var wire 1 < \DIP_SW[6]~input_o\ $end
$var wire 1 = \DIP_SW[5]~input_o\ $end
$var wire 1 > \KEY_EX[1]~input_o\ $end
$var wire 1 ? \Mux0~0_combout\ $end
$var wire 1 @ \Mux0~1_combout\ $end
$upscope $end
$upscope $end
$enddefinitions $end
#0
$dumpvars
0'
0(
1)
x*
1+
1,
1-
1.
1/
10
07
08
09
0:
0;
0<
0=
0>
0?
0@
0!
0"
0#
0$
0%
0&
01
02
03
04
05
06
$end
#1000
1"
1&
12
16
1>
1<
1?
1@
18
17
1'
#2000
0"
0&
1%
02
06
15
19
0>
0<
0?
0@
08
07
0'
#3000
1&
1$
16
14
1:
1>
1?
1@
18
17
1'
#4000
0&
0$
0%
1!
06
05
04
11
1=
0:
09
0>
#5000
1&
0!
16
01
0=
1>
0?
0@
08
07
0'
#6000
0&
1%
1#
06
15
13
1;
19
0>
1@
18
17
1'
#7000
1&
0#
16
03
0;
1>
1?
0@
08
07
0'
#8000
0&
0%
06
05
09
0>
0?
1@
0@
18
17
08
1'
07
0'
#9000
1&
16
1>
#10000
0&
1%
06
15
19
0>
#11000
1&
16
1>
1?
#12000
0&
0%
06
05
09
0>
0?
1@
0@
18
17
08
1'
07
0'
#13000
1&
16
1>
#14000
0&
1%
06
15
19
0>
#15000
1&
16
1>
1?
#16000
0&
0%
06
05
09
0>
0?
1@
0@
18
17
08
1'
07
0'
#17000
1&
16
1>
#18000
0&
1%
06
15
19
0>
#19000
1&
16
1>
1?
