Proyectos/lab3/and_2/simulation/qsim/and_2.msim.vcd
$comment
	File created using the following command:
		vcd file and_2.msim.vcd -direction
$end
$date
	Wed Feb 26 18:03:38 2020
$end
$version
	ModelSim Version 10.5b
$end
$timescale
	1ps
$end

$scope module and_2_vhd_vec_tst $end
$var wire 1 ! KEY [1] $end
$var wire 1 " KEY [0] $end
$var wire 1 # LED [0] $end

$scope module i1 $end
$var wire 1 $ gnd $end
$var wire 1 % vcc $end
$var wire 1 & unknown $end
$var wire 1 ' devoe $end
$var wire 1 ( devclrn $end
$var wire 1 ) devpor $end
$var wire 1 * ww_devoe $end
$var wire 1 + ww_devclrn $end
$var wire 1 , ww_devpor $end
$var wire 1 - ww_LED [0] $end
$var wire 1 . ww_KEY [1] $end
$var wire 1 / ww_KEY [0] $end
$var wire 1 0 \LED[0]~output_o\ $end
$var wire 1 1 \KEY[1]~input_o\ $end
$var wire 1 2 \KEY[0]~input_o\ $end
$var wire 1 3 \inst1~combout\ $end
$upscope $end
$upscope $end
$enddefinitions $end
#0
$dumpvars
0$
1%
x&
1'
1(
1)
1*
1+
1,
00
01
02
03
0!
0"
0-
0.
0/
0#
$end
#500000
1!
1.
11
#1000000
0!
1"
1/
0.
01
12
#1500000
1!
1.
11
13
10
1-
1#
#2000000
0!
0"
0/
0.
01
02
03
00
0-
0#
#2500000
1!
1.
11
#3000000
0!
1"
1/
0.
01
12
#3500000
1!
1.
11
13
10
1-
1#
#4000000
0!
0"
0/
0.
01
02
03
00
0-
0#
#4500000
1!
1.
11
#5000000
0!
1"
1/
0.
01
12
#5500000
1!
1.
11
13
10
1-
1#
#6000000
0!
0"
0/
0.
01
02
03
00
0-
0#
#6500000
1!
1.
11
#7000000
0!
1"
1/
0.
01
12
#7500000
1!
1.
11
13
10
1-
1#
#8000000
0!
0"
0/
0.
01
02
03
00
0-
0#
#8500000
1!
1.
11
#9000000
0!
1"
1/
0.
01
12
#9500000
1!
1.
11
13
10
1-
1#
#10000000
0!
0"
0/
0.
01
02
03
00
0-
0#
#10500000
1!
1.
11
#11000000
0!
1"
1/
0.
01
12
#11500000
1!
1.
11
13
10
1-
1#
#12000000
0!
0"
0/
0.
01
02
03
00
0-
0#
#12500000
1!
1.
11
#13000000
0!
1"
1/
0.
01
12
#13500000
1!
1.
11
13
10
1-
1#
#14000000
0!
0"
0/
0.
01
02
03
00
0-
0#
#14500000
1!
1.
11
#15000000
0!
1"
1/
0.
01
12
#15500000
1!
1.
11
13
10
1-
1#
