Proyectos/lab5/mux_red_4x1/simulation/qsim/mux_red_4x1.msim.vcd
$comment
	File created using the following command:
		vcd file mux_red_4x1.msim.vcd -direction
$end
$date
	Tue Apr 07 16:54:43 2020
$end
$version
	ModelSim Version 10.5b
$end
$timescale
	1ps
$end

$scope module mux_red_4x1_vhd_vec_tst $end
$var wire 1 ! DIP_SW [5] $end
$var wire 1 " DIP_SW [6] $end
$var wire 1 # DIP_SW [7] $end
$var wire 1 $ DIP_SW [8] $end
$var wire 1 % KEY_EX [0] $end
$var wire 1 & KEY_EX [1] $end
$var wire 1 ' VERDE $end

$scope module i1 $end
$var wire 1 ( gnd $end
$var wire 1 ) vcc $end
$var wire 1 * unknown $end
$var wire 1 + devoe $end
$var wire 1 , devclrn $end
$var wire 1 - devpor $end
$var wire 1 . ww_devoe $end
$var wire 1 / ww_devclrn $end
$var wire 1 0 ww_devpor $end
$var wire 1 1 ww_DIP_SW [5] $end
$var wire 1 2 ww_DIP_SW [6] $end
$var wire 1 3 ww_DIP_SW [7] $end
$var wire 1 4 ww_DIP_SW [8] $end
$var wire 1 5 ww_KEY_EX [0] $end
$var wire 1 6 ww_KEY_EX [1] $end
$var wire 1 7 ww_VERDE $end
$var wire 1 8 \VERDE~output_o\ $end
$var wire 1 9 \DIP_SW[8]~input_o\ $end
$var wire 1 : \KEY_EX[0]~input_o\ $end
$var wire 1 ; \DIP_SW[6]~input_o\ $end
$var wire 1 < \DIP_SW[5]~input_o\ $end
$var wire 1 = \KEY_EX[1]~input_o\ $end
$var wire 1 > \mux3|O~0_combout\ $end
$var wire 1 ? \DIP_SW[7]~input_o\ $end
$var wire 1 @ \mux3|O~1_combout\ $end
$upscope $end
$upscope $end
$enddefinitions $end
#0
$dumpvars
0'
0(
1)
x*
1+
1,
1-
1.
1/
10
07
08
09
0:
0;
0<
0=
0>
0?
0@
0!
0"
0#
0$
0%
0&
01
02
03
04
05
06
$end
#50
1!
11
1<
1>
1@
18
17
1'
#100
0!
1"
12
01
0<
1;
0>
0@
08
07
0'
#150
1!
1#
13
11
1<
1?
1>
1@
18
17
1'
#200
0!
0"
1$
14
02
01
0<
0;
19
0>
0@
08
07
0'
#250
1!
11
1<
1>
1@
18
17
1'
#300
0!
1"
0#
03
12
01
0<
1;
0?
0>
0@
08
07
0'
#350
1!
11
1<
1>
1@
18
17
1'
#400
0!
0"
0$
04
02
01
0<
0;
09
0>
0@
08
07
0'
#450
1!
1#
13
11
1<
1?
1>
1@
18
17
1'
#500
0!
1"
12
01
0<
1;
0>
0@
08
07
0'
#550
1!
11
1<
1>
1@
18
17
1'
#600
0!
0"
0#
1$
14
03
02
01
0<
0;
0?
19
0>
0@
08
07
0'
#650
1!
11
1<
1>
1@
18
17
1'
#700
0!
1"
12
01
0<
1;
0>
0@
08
07
0'
#750
1!
1#
13
11
1<
1?
1>
1@
18
17
1'
#800
0!
0"
0$
04
02
01
0<
0;
09
0>
0@
08
07
0'
#850
1!
11
1<
1>
1@
18
17
1'
#900
0!
1"
0#
03
12
01
0<
1;
0?
0>
0@
08
07
0'
#950
1!
11
1<
1>
1@
18
17
1'
#1000
0!
0"
1$
14
02
01
0<
0;
19
0>
0@
08
07
0'
#1050
1!
1#
13
11
1<
1?
1>
1@
18
17
1'
#1100
0!
1"
12
01
0<
1;
0>
0@
08
07
0'
#1150
1!
11
1<
1>
1@
18
17
1'
#1200
0!
0"
0#
0$
04
03
02
01
0<
0;
0?
09
0>
0@
08
07
0'
#1250
1!
11
1<
1>
1@
18
17
1'
#1300
0!
1"
12
01
0<
1;
0>
0@
08
07
0'
#1350
1!
1#
13
11
1<
1?
1>
1@
18
17
1'
#1400
0!
0"
1$
14
02
01
0<
0;
19
0>
0@
08
07
0'
#1450
1!
11
1<
1>
1@
18
17
1'
#1500
0!
1"
0#
03
12
01
0<
1;
0?
0>
0@
08
07
0'
#1550
1!
11
1<
1>
1@
18
17
1'
#1600
0!
0"
0$
04
02
01
0<
0;
09
0>
0@
08
07
0'
#1650
1!
1#
13
11
1<
1?
1>
1@
18
17
1'
#1700
0!
1"
12
01
0<
1;
0>
0@
08
07
0'
#1750
1!
11
1<
1>
1@
18
17
1'
#1800
0!
0"
0#
1$
14
03
02
01
0<
0;
0?
19
0>
0@
08
07
0'
#1850
1!
11
1<
1>
1@
18
17
1'
#1900
0!
1"
12
01
0<
1;
0>
0@
08
07
0'
#1950
1!
1#
13
11
1<
1?
1>
1@
18
17
1'
#2000
0!
0"
0$
1&
04
02
01
16
1=
0<
0;
09
0>
0@
1@
08
07
18
0'
17
1'
#2050
1!
11
1<
#2100
0!
1"
0#
03
12
01
0<
1;
0?
0@
08
07
0'
#2150
1!
11
1<
#2200
0!
0"
1$
14
02
01
0<
0;
19
#2250
1!
1#
13
11
1<
1?
1@
18
17
1'
#2300
0!
1"
12
01
0<
1;
#2350
1!
11
1<
#2400
0!
0"
0#
0$
04
03
02
01
0<
0;
0?
09
0@
08
07
0'
#2450
1!
11
1<
#2500
0!
1"
12
01
0<
1;
#2550
1!
1#
13
11
1<
1?
1@
18
17
1'
#2600
0!
0"
1$
14
02
01
0<
0;
19
#2650
1!
11
1<
#2700
0!
1"
0#
03
12
01
0<
1;
0?
0@
08
07
0'
#2750
1!
11
1<
#2800
0!
0"
0$
04
02
01
0<
0;
09
#2850
1!
1#
13
11
1<
1?
1@
18
17
1'
#2900
0!
1"
12
01
0<
1;
#2950
1!
11
1<
#3000
0!
0"
0#
1$
14
03
02
01
0<
0;
0?
19
0@
08
07
0'
#3050
1!
11
1<
#3100
0!
1"
12
01
0<
1;
#3150
1!
1#
13
11
1<
1?
1@
18
17
1'
#3200
0!
0"
0$
04
02
01
0<
0;
09
#3250
1!
11
1<
#3300
0!
1"
0#
03
12
01
0<
1;
0?
0@
08
07
0'
#3350
1!
11
1<
#3400
0!
0"
1$
14
02
01
0<
0;
19
#3450
1!
1#
13
11
1<
1?
1@
18
17
1'
#3500
0!
1"
12
01
0<
1;
#3550
1!
11
1<
#3600
0!
0"
0#
0$
04
03
02
01
0<
0;
0?
09
0@
08
07
0'
#3650
1!
11
1<
#3700
0!
1"
12
01
0<
1;
#3750
1!
1#
13
11
1<
1?
1@
18
17
1'
#3800
0!
0"
1$
14
02
01
0<
0;
19
#3850
1!
11
1<
#3900
0!
1"
0#
03
12
01
0<
1;
0?
0@
08
07
0'
#3950
1!
11
1<
#4000
0!
0"
0$
0&
1%
04
02
01
06
15
1:
0=
0<
0;
09
#4050
1!
1#
13
11
1<
1?
#4100
0!
1"
12
01
0<
1;
1>
1@
18
17
1'
#4150
1!
11
1<
#4200
0!
0"
0#
1$
14
03
02
01
0<
0;
0?
19
0>
0@
08
07
0'
#4250
1!
11
1<
#4300
0!
1"
12
01
0<
1;
1>
1@
18
17
1'
#4350
1!
1#
13
11
1<
1?
#4400
0!
0"
0$
04
02
01
0<
0;
09
0>
0@
08
07
0'
#4450
1!
11
1<
#4500
0!
1"
0#
03
12
01
0<
1;
0?
1>
1@
18
17
1'
#4550
1!
11
1<
#4600
0!
0"
1$
14
02
01
0<
0;
19
0>
0@
08
07
0'
#4650
1!
1#
13
11
1<
1?
#4700
0!
1"
12
01
0<
1;
1>
1@
18
17
1'
#4750
1!
11
1<
#4800
0!
0"
0#
0$
04
03
02
01
0<
0;
0?
09
0>
0@
08
07
0'
#4850
1!
11
1<
#4900
0!
1"
12
01
0<
1;
1>
1@
18
17
1'
#4950
1!
1#
13
11
1<
1?
#5000
0!
0"
1$
14
02
01
0<
0;
19
0>
0@
08
07
0'
#5050
1!
11
1<
#5100
0!
1"
0#
03
12
01
0<
1;
0?
1>
1@
18
17
1'
#5150
1!
11
1<
#5200
0!
0"
0$
04
02
01
0<
0;
09
0>
0@
08
07
0'
#5250
1!
1#
13
11
1<
1?
#5300
0!
1"
12
01
0<
1;
1>
1@
18
17
1'
#5350
1!
11
1<
#5400
0!
0"
0#
1$
14
03
02
01
0<
0;
0?
19
0>
0@
08
07
0'
#5450
1!
11
1<
#5500
0!
1"
12
01
0<
1;
1>
1@
18
17
1'
#5550
1!
1#
13
11
1<
1?
#5600
0!
0"
0$
04
02
01
0<
0;
09
0>
0@
08
07
0'
#5650
1!
11
1<
#5700
0!
1"
0#
03
12
01
0<
1;
0?
1>
1@
18
17
1'
#5750
1!
11
1<
#5800
0!
0"
1$
14
02
01
0<
0;
19
0>
0@
08
07
0'
#5850
1!
1#
13
11
1<
1?
#5900
0!
1"
12
01
0<
1;
1>
1@
18
17
1'
#5950
1!
11
1<
#6000
0!
0"
0#
0$
1&
04
03
02
01
16
1=
0<
0;
0?
09
0@
08
07
0'
#6050
1!
11
1<
#6100
0!
1"
12
01
0<
1;
#6150
1!
1#
13
11
1<
1?
#6200
0!
0"
1$
14
02
01
0<
0;
19
1@
18
17
1'
#6250
1!
11
1<
#6300
0!
1"
0#
03
12
01
0<
1;
0?
#6350
1!
11
1<
#6400
0!
0"
0$
04
02
01
0<
0;
09
0@
08
07
0'
#6450
1!
1#
13
11
1<
1?
#6500
0!
1"
12
01
0<
1;
#6550
1!
11
1<
#6600
0!
0"
0#
1$
14
03
02
01
0<
0;
0?
19
1@
18
17
1'
#6650
1!
11
1<
#6700
0!
1"
12
01
0<
1;
#6750
1!
1#
13
11
1<
1?
#6800
0!
0"
0$
04
02
01
0<
0;
09
0@
08
07
0'
#6850
1!
11
1<
#6900
0!
1"
0#
03
12
01
0<
1;
0?
#6950
1!
11
1<
#7000
0!
0"
1$
14
02
01
0<
0;
19
1@
18
17
1'
#7050
1!
1#
13
11
1<
1?
#7100
0!
1"
12
01
0<
1;
#7150
1!
11
1<
#7200
0!
0"
0#
0$
04
03
02
01
0<
0;
0?
09
0@
08
07
0'
#7250
1!
11
1<
#7300
0!
1"
12
01
0<
1;
#7350
1!
1#
13
11
1<
1?
#7400
0!
0"
1$
14
02
01
0<
0;
19
1@
18
17
1'
#7450
1!
11
1<
#7500
0!
1"
0#
03
12
01
0<
1;
0?
#7550
1!
11
1<
#7600
0!
0"
0$
04
02
01
0<
0;
09
0@
08
07
0'
#7650
1!
1#
13
11
1<
1?
#7700
0!
1"
12
01
0<
1;
#7750
1!
11
1<
#7800
0!
0"
0#
1$
14
03
02
01
0<
0;
0?
19
1@
18
17
1'
#7850
1!
11
1<
#7900
0!
1"
12
01
0<
1;
#7950
1!
1#
13
11
1<
1?
#8000
0!
0"
0$
0&
0%
04
02
01
06
05
0:
0=
0<
0;
09
0>
0@
08
07
0'
#8050
1!
11
1<
1>
1@
18
17
1'
#8100
0!
1"
0#
03
12
01
0<
1;
0?
0>
0@
08
07
0'
#8150
1!
11
1<
1>
1@
18
17
1'
#8200
0!
0"
1$
14
02
01
0<
0;
19
0>
0@
08
07
0'
#8250
1!
1#
13
11
1<
1?
1>
1@
18
17
1'
#8300
0!
1"
12
01
0<
1;
0>
0@
08
07
0'
#8350
1!
11
1<
1>
1@
18
17
1'
#8400
0!
0"
0#
0$
04
03
02
01
0<
0;
0?
09
0>
0@
08
07
0'
#8450
1!
11
1<
1>
1@
18
17
1'
#8500
0!
1"
12
01
0<
1;
0>
0@
08
07
0'
#8550
1!
1#
13
11
1<
1?
1>
1@
18
17
1'
#8600
0!
0"
1$
14
02
01
0<
0;
19
0>
0@
08
07
0'
#8650
1!
11
1<
1>
1@
18
17
1'
#8700
0!
1"
0#
03
12
01
0<
1;
0?
0>
0@
08
07
0'
#8750
1!
11
1<
1>
1@
18
17
1'
#8800
0!
0"
0$
04
02
01
0<
0;
09
0>
0@
08
07
0'
#8850
1!
1#
13
11
1<
1?
1>
1@
18
17
1'
#8900
0!
1"
12
01
0<
1;
0>
0@
08
07
0'
#8950
1!
11
1<
1>
1@
18
17
1'
#9000
0!
0"
0#
1$
14
03
02
01
0<
0;
0?
19
0>
0@
08
07
0'
#9050
1!
11
1<
1>
1@
18
17
1'
#9100
0!
1"
12
01
0<
1;
0>
0@
08
07
0'
#9150
1!
1#
13
11
1<
1?
1>
1@
18
17
1'
#9200
0!
0"
0$
04
02
01
0<
0;
09
0>
0@
08
07
0'
#9250
1!
11
1<
1>
1@
18
17
1'
#9300
0!
1"
0#
03
12
01
0<
1;
0?
0>
0@
08
07
0'
#9350
1!
11
1<
1>
1@
18
17
1'
#9400
0!
0"
1$
14
02
01
0<
0;
19
0>
0@
08
07
0'
#9450
1!
1#
13
11
1<
1?
1>
1@
18
17
1'
#9500
0!
1"
12
01
0<
1;
0>
0@
08
07
0'
#9550
1!
11
1<
1>
1@
18
17
1'
#9600
0!
0"
0#
0$
04
03
02
01
0<
0;
0?
09
0>
0@
08
07
0'
#9650
1!
11
1<
1>
1@
18
17
1'
#9700
0!
1"
12
01
0<
1;
0>
0@
08
07
0'
#9750
1!
1#
13
11
1<
1?
1>
1@
18
17
1'
#9800
0!
0"
1$
14
02
01
0<
0;
19
0>
0@
08
07
0'
#9850
1!
11
1<
1>
1@
18
17
1'
#9900
0!
1"
0#
03
12
01
0<
1;
0?
0>
0@
08
07
0'
#9950
1!
11
1<
1>
1@
18
17
1'
#10000
0!
0"
0$
1&
04
02
01
16
1=
0<
0;
09
0>
0@
08
07
0'
#10050
1!
1#
13
11
1<
1?
1@
18
17
1'
#10100
0!
1"
12
01
0<
1;
#10150
1!
11
1<
#10200
0!
0"
0#
1$
14
03
02
01
0<
0;
0?
19
0@
08
07
0'
#10250
1!
11
1<
#10300
0!
1"
12
01
0<
1;
#10350
1!
1#
13
11
1<
1?
1@
18
17
1'
#10400
0!
0"
0$
04
02
01
0<
0;
09
#10450
1!
11
1<
#10500
0!
1"
0#
03
12
01
0<
1;
0?
0@
08
07
0'
#10550
1!
11
1<
#10600
0!
0"
1$
14
02
01
0<
0;
19
#10650
1!
1#
13
11
1<
1?
1@
18
17
1'
#10700
0!
1"
12
01
0<
1;
#10750
1!
11
1<
#10800
0!
0"
0#
0$
04
03
02
01
0<
0;
0?
09
0@
08
07
0'
#10850
1!
11
1<
#10900
0!
1"
12
01
0<
1;
#10950
1!
1#
13
11
1<
1?
1@
18
17
1'
#11000
0!
0"
1$
14
02
01
0<
0;
19
#11050
1!
11
1<
#11100
0!
1"
0#
03
12
01
0<
1;
0?
0@
08
07
0'
#11150
1!
11
1<
#11200
0!
0"
0$
04
02
01
0<
0;
09
#11250
1!
1#
13
11
1<
1?
1@
18
17
1'
#11300
0!
1"
12
01
0<
1;
#11350
1!
11
1<
#11400
0!
0"
0#
1$
14
03
02
01
0<
0;
0?
19
0@
08
07
0'
#11450
1!
11
1<
#11500
0!
1"
12
01
0<
1;
#11550
1!
1#
13
11
1<
1?
1@
18
17
1'
#11600
0!
0"
0$
04
02
01
0<
0;
09
#11650
1!
11
1<
#11700
0!
1"
0#
03
12
01
0<
1;
0?
0@
08
07
0'
#11750
1!
11
1<
#11800
0!
0"
1$
14
02
01
0<
0;
19
#11850
1!
1#
13
11
1<
1?
1@
18
17
1'
#11900
0!
1"
12
01
0<
1;
#11950
1!
11
1<
#12000
0!
0"
0#
0$
0&
1%
04
03
02
01
06
15
1:
0=
0<
0;
0?
09
0@
08
07
0'
#12050
1!
11
1<
#12100
0!
1"
12
01
0<
1;
1>
1@
18
17
1'
#12150
1!
1#
13
11
1<
1?
#12200
0!
0"
1$
14
02
01
0<
0;
19
0>
0@
08
07
0'
#12250
1!
11
1<
#12300
0!
1"
0#
03
12
01
0<
1;
0?
1>
1@
18
17
1'
#12350
1!
11
1<
#12400
0!
0"
0$
04
02
01
0<
0;
09
0>
0@
08
07
0'
#12450
1!
1#
13
11
1<
1?
#12500
0!
1"
12
01
0<
1;
1>
1@
18
17
1'
#12550
1!
11
1<
#12600
0!
0"
0#
1$
14
03
02
01
0<
0;
0?
19
0>
0@
08
07
0'
#12650
1!
11
1<
#12700
0!
1"
12
01
0<
1;
1>
1@
18
17
1'
#12750
1!
1#
13
11
1<
1?
#12800
0!
0"
0$
04
02
01
0<
0;
09
0>
0@
08
07
0'
#12850
1!
11
1<
#12900
0!
1"
0#
03
12
01
0<
1;
0?
1>
1@
18
17
1'
#12950
1!
11
1<
#13000
0!
0"
1$
14
02
01
0<
0;
19
0>
0@
08
07
0'
#13050
1!
1#
13
11
1<
1?
#13100
0!
1"
12
01
0<
1;
1>
1@
18
17
1'
#13150
1!
11
1<
#13200
0!
0"
0#
0$
04
03
02
01
0<
0;
0?
09
0>
0@
08
07
0'
#13250
1!
11
1<
#13300
0!
1"
12
01
0<
1;
1>
1@
18
17
1'
#13350
1!
1#
13
11
1<
1?
#13400
0!
0"
1$
14
02
01
0<
0;
19
0>
0@
08
07
0'
#13450
1!
11
1<
#13500
0!
1"
0#
03
12
01
0<
1;
0?
1>
1@
18
17
1'
#13550
1!
11
1<
#13600
0!
0"
0$
04
02
01
0<
0;
09
0>
0@
08
07
0'
#13650
1!
1#
13
11
1<
1?
#13700
0!
1"
12
01
0<
1;
1>
1@
18
17
1'
#13750
1!
11
1<
#13800
0!
0"
0#
1$
14
03
02
01
0<
0;
0?
19
0>
0@
08
07
0'
#13850
1!
11
1<
#13900
0!
1"
12
01
0<
1;
1>
1@
18
17
1'
#13950
1!
1#
13
11
1<
1?
#14000
0!
0"
0$
1&
04
02
01
16
1=
0<
0;
09
0@
08
07
0'
#14050
1!
11
1<
#14100
0!
1"
0#
03
12
01
0<
1;
0?
#14150
1!
11
1<
#14200
0!
0"
1$
14
02
01
0<
0;
19
1@
18
17
1'
#14250
1!
1#
13
11
1<
1?
#14300
0!
1"
12
01
0<
1;
#14350
1!
11
1<
#14400
0!
0"
0#
0$
04
03
02
01
0<
0;
0?
09
0@
08
07
0'
#14450
1!
11
1<
#14500
0!
1"
12
01
0<
1;
#14550
1!
1#
13
11
1<
1?
#14600
0!
0"
1$
14
02
01
0<
0;
19
1@
18
17
1'
#14650
1!
11
1<
#14700
0!
1"
0#
03
12
01
0<
1;
0?
#14750
1!
11
1<
#14800
0!
0"
0$
04
02
01
0<
0;
09
0@
08
07
0'
#14850
1!
1#
13
11
1<
1?
#14900
0!
1"
12
01
0<
1;
#14950
1!
11
1<
