Proyectos/lab4/sumador-restador/simulation/qsim/SumadorRestador.msim.vcd
$comment
	File created using the following command:
		vcd file SumadorRestador.msim.vcd -direction
$end
$date
	Sat Apr 18 12:30:41 2020
$end
$version
	ModelSim Version 10.5b
$end
$timescale
	1ps
$end

$scope module lab4_vhd_vec_tst $end
$var wire 1 ! DIP_SW [1] $end
$var wire 1 " DIP_SW [2] $end
$var wire 1 # DIP_SW [3] $end
$var wire 1 $ DIP_SW [4] $end
$var wire 1 % DIP_SW [5] $end
$var wire 1 & DIP_SW [6] $end
$var wire 1 ' DIP_SW [7] $end
$var wire 1 ( DIP_SW [8] $end
$var wire 1 ) KEY_EX [0] $end
$var wire 1 * KEY_EX [1] $end
$var wire 1 + LED [7] $end
$var wire 1 , LED [6] $end
$var wire 1 - LED [5] $end
$var wire 1 . LED [4] $end
$var wire 1 / LED [3] $end
$var wire 1 0 LED [2] $end
$var wire 1 1 LED [1] $end
$var wire 1 2 LED [0] $end

$scope module i1 $end
$var wire 1 3 gnd $end
$var wire 1 4 vcc $end
$var wire 1 5 unknown $end
$var wire 1 6 devoe $end
$var wire 1 7 devclrn $end
$var wire 1 8 devpor $end
$var wire 1 9 ww_devoe $end
$var wire 1 : ww_devclrn $end
$var wire 1 ; ww_devpor $end
$var wire 1 < ww_DIP_SW [1] $end
$var wire 1 = ww_DIP_SW [2] $end
$var wire 1 > ww_DIP_SW [3] $end
$var wire 1 ? ww_DIP_SW [4] $end
$var wire 1 @ ww_DIP_SW [5] $end
$var wire 1 A ww_DIP_SW [6] $end
$var wire 1 B ww_DIP_SW [7] $end
$var wire 1 C ww_DIP_SW [8] $end
$var wire 1 D ww_KEY_EX [0] $end
$var wire 1 E ww_KEY_EX [1] $end
$var wire 1 F ww_LED [7] $end
$var wire 1 G ww_LED [6] $end
$var wire 1 H ww_LED [5] $end
$var wire 1 I ww_LED [4] $end
$var wire 1 J ww_LED [3] $end
$var wire 1 K ww_LED [2] $end
$var wire 1 L ww_LED [1] $end
$var wire 1 M ww_LED [0] $end
$var wire 1 N \KEY_EX[1]~input_o\ $end
$var wire 1 O \LED[0]~output_o\ $end
$var wire 1 P \LED[1]~output_o\ $end
$var wire 1 Q \LED[2]~output_o\ $end
$var wire 1 R \LED[3]~output_o\ $end
$var wire 1 S \LED[4]~output_o\ $end
$var wire 1 T \LED[5]~output_o\ $end
$var wire 1 U \LED[6]~output_o\ $end
$var wire 1 V \LED[7]~output_o\ $end
$var wire 1 W \DIP_SW[8]~input_o\ $end
$var wire 1 X \DIP_SW[4]~input_o\ $end
$var wire 1 Y \o|Add2~3_combout\ $end
$var wire 1 Z \DIP_SW[3]~input_o\ $end
$var wire 1 [ \DIP_SW[7]~input_o\ $end
$var wire 1 \ \o|LessThan0~0_combout\ $end
$var wire 1 ] \DIP_SW[5]~input_o\ $end
$var wire 1 ^ \DIP_SW[6]~input_o\ $end
$var wire 1 _ \DIP_SW[1]~input_o\ $end
$var wire 1 ` \DIP_SW[2]~input_o\ $end
$var wire 1 a \o|LessThan0~1_combout\ $end
$var wire 1 b \o|LessThan0~2_combout\ $end
$var wire 1 c \KEY_EX[0]~input_o\ $end
$var wire 1 d \o|Add2~0_combout\ $end
$var wire 1 e \o|Add1~0_combout\ $end
$var wire 1 f \o|Add2~1_combout\ $end
$var wire 1 g \o|Add0~0_combout\ $end
$var wire 1 h \o|Add2~2_combout\ $end
$var wire 1 i \o|Add2~5_combout\ $end
$var wire 1 j \o|Add0~1\ $end
$var wire 1 k \o|Add0~2_combout\ $end
$var wire 1 l \o|Add1~1\ $end
$var wire 1 m \o|Add1~2_combout\ $end
$var wire 1 n \o|Add2~6_combout\ $end
$var wire 1 o \o|Add2~4\ $end
$var wire 1 p \o|Add2~7_combout\ $end
$var wire 1 q \o|Add2~9_combout\ $end
$var wire 1 r \o|Add1~3\ $end
$var wire 1 s \o|Add1~4_combout\ $end
$var wire 1 t \o|Add0~3\ $end
$var wire 1 u \o|Add0~4_combout\ $end
$var wire 1 v \o|Add2~10_combout\ $end
$var wire 1 w \o|Add2~8\ $end
$var wire 1 x \o|Add2~11_combout\ $end
$var wire 1 y \o|Add2~13_combout\ $end
$var wire 1 z \o|Add1~5\ $end
$var wire 1 { \o|Add1~6_combout\ $end
$var wire 1 | \o|Add0~5\ $end
$var wire 1 } \o|Add0~6_combout\ $end
$var wire 1 ~ \o|Add2~14_combout\ $end
$var wire 1 !! \o|Add2~12\ $end
$var wire 1 "! \o|Add2~15_combout\ $end
$var wire 1 #! \o|Add2~17_combout\ $end
$var wire 1 $! \o|Overflow~0_combout\ $end
$var wire 1 %! \o|Add2~16\ $end
$var wire 1 &! \o|Add2~18_combout\ $end
$var wire 1 '! \o|Add0~7\ $end
$var wire 1 (! \o|Add0~8_combout\ $end
$var wire 1 )! \o|Add1~7\ $end
$var wire 1 *! \o|Add1~8_combout\ $end
$var wire 1 +! \o|Add2~20_combout\ $end
$var wire 1 ,! \o|Overflow~combout\ $end
$var wire 1 -! \o|Sig~0_combout\ $end
$var wire 1 .! \o|Sig~1_combout\ $end
$var wire 1 /! \o|Sig~2_combout\ $end
$var wire 1 0! \o|Add2~21_combout\ $end
$upscope $end
$upscope $end
$enddefinitions $end
#0
$dumpvars
03
14
x5
16
17
18
19
1:
1;
xN
1O
1P
1Q
0R
0S
0T
0U
0V
0W
1X
1Y
0Z
1[
0\
0]
0^
0_
1`
0a
1b
0c
0d
1e
0f
1g
0h
1i
0j
0k
1l
1m
0n
0o
1p
1q
1r
0s
0t
1u
0v
1w
1x
1y
1z
0{
0|
1}
0~
0!!
0"!
0#!
0$!
1%!
0&!
1'!
1(!
0)!
0*!
0+!
0,!
1-!
0.!
0/!
00!
0!
1"
0#
1$
0%
0&
1'
0(
0)
x*
0<
1=
0>
1?
0@
0A
1B
0C
0D
xE
0F
0G
0H
0I
0J
1K
1L
1M
0+
0,
0-
0.
0/
10
11
12
$end
#20000
1)
1D
1c
1f
0i
0q
0y
1h
1n
1q
1i
0Q
0P
0O
0K
0L
0M
02
01
00
1O
1P
1M
1L
12
11
#40000
0)
1%
1&
0D
1A
1@
1]
1^
0c
0f
1y
1s
0z
0u
1|
0x
1!!
1.!
0b
1{
1)!
0}
0'!
1"!
1$!
1,!
1#!
0(!
1*!
0"!
0%!
0y
1}
0{
0h
0n
1&!
0#!
1Q
0,!
10!
1K
0Q
1R
1T
10
0K
1J
1H
0R
00
1/
1-
0J
1V
0T
0/
1F
0H
0-
1+
#60000
1)
1D
1c
1d
0i
0q
1,!
1/!
00!
1h
1~
1#!
1i
0V
1U
1T
0P
0O
0F
1G
1H
0L
0M
02
01
1-
1,
0+
1O
1R
1M
1J
12
1/
#80000
0)
0%
0&
0$
0D
0A
0@
0?
0X
0]
0^
0c
0d
1q
0,!
10!
0s
1z
1u
0|
1x
0!!
0.!
1b
1{
0}
1"!
1%!
0$!
0/!
0Y
0e
0g
1j
1k
1,!
0&!
0"!
1y
1}
1'!
0{
0)!
0h
0~
0i
0*!
1(!
0#!
0,!
00!
0U
1V
0T
1P
0G
1F
0H
1L
1Q
1T
11
0-
0,
1+
1K
1H
0V
0T
0R
0O
10
1-
0F
0H
0J
0M
02
0/
0-
0+
#100000
1)
1D
1c
1f
0q
0y
1n
1q
0Q
0P
0K
0L
01
00
1P
1L
11
#120000
0)
1%
1&
0D
1A
1@
1]
1^
0c
0f
1y
1s
0z
0u
1|
0x
1!!
1.!
0b
1{
1)!
0}
0'!
1"!
1$!
1,!
1#!
0(!
1*!
0"!
0%!
0y
1}
0{
0n
1&!
0#!
1Q
0,!
10!
1K
0Q
1R
1T
10
0K
1J
1H
0R
00
1/
1-
0J
1V
0T
0/
1F
0H
0-
1+
#140000
1)
1D
1c
1d
0q
1,!
1/!
00!
1n
1~
1#!
1q
0V
1U
1T
0P
0F
1G
1H
0L
01
1-
1,
0+
1P
1R
1L
1J
11
1/
#160000
0)
0%
0&
1$
1#
0D
0A
0@
1?
1>
1Z
1X
0]
0^
0c
0d
0,!
10!
0s
1z
1u
0|
1x
0!!
0.!
1b
1{
0}
1"!
1%!
0$!
0/!
1Y
1e
1g
0j
1\
0k
0m
0r
0p
0w
0-!
0x
1!!
1s
1k
1t
1i
1,!
0&!
0"!
1y
1}
1'!
0{
0)!
0n
0~
0q
0*!
1(!
0#!
0,!
00!
0u
1"!
0y
0U
1V
0T
1#!
0G
1F
0H
1Q
1T
1O
0-
0,
1+
1K
1H
1M
0Q
0V
0T
0R
0P
12
10
1-
0K
0F
0H
0J
0L
1R
01
00
0/
0-
0+
1J
1/
#180000
1)
1D
1c
1f
0i
0#!
1h
1v
1y
1i
0R
0O
0J
0M
02
0/
1O
1Q
1M
1K
12
10
#200000
0)
1%
1&
0D
1A
1@
1]
1^
0c
0f
1#!
0s
1u
1x
0b
1{
1)!
0}
0'!
0"!
0%!
1$!
1,!
1&!
0#!
0(!
1*!
0h
0v
0,!
10!
1R
1J
0R
1T
1/
0J
1H
1V
0T
0/
1-
1F
0H
0-
1+
#220000
1)
1D
1c
1d
0i
0y
1,!
1/!
00!
1h
1n
1v
1y
1q
1i
0V
1U
1T
0Q
0O
0F
1G
1H
0K
0M
02
00
1-
1,
0+
1O
1P
1Q
1M
1L
1K
12
11
10
#240000
0)
0%
0&
0#
1!
0"
0D
0A
0@
0>
0=
1<
1_
0`
0Z
0]
0^
0c
0d
0,!
10!
0\
0k
0t
1m
1r
1p
1w
1-!
0!!
1b
0)!
1'!
0/!
1(!
0*!
1"!
1%!
1.!
0x
1s
0z
0u
1|
0h
0n
0v
1}
0{
0y
0&!
1#!
0U
1V
0T
1,!
00!
0G
1F
0H
0-
0,
1+
1R
0Q
1J
0K
0V
1T
00
1/
0F
1H
1-
0+
#260000
1)
1D
1c
1f
0i
0q
0#!
1h
1n
1v
1y
1q
1i
0R
0P
0O
0J
0L
0M
02
01
0/
1O
1P
1Q
1M
1L
1K
12
11
10
#280000
0)
1%
1&
0D
1A
1@
1]
1^
0c
0f
1#!
0s
1u
1x
0b
1{
1)!
0}
0'!
0"!
0%!
0$!
0,!
1&!
0#!
0(!
1*!
0h
0n
0v
1,!
10!
1R
1J
0R
0T
1/
0J
0H
1V
1T
0/
0-
1F
1H
1-
1+
#300000
1)
1D
1c
1d
0i
0q
0y
0,!
1/!
00!
1h
1v
1y
1i
0V
1U
0T
0Q
0P
0O
0F
1G
0H
0K
0L
0M
02
01
00
0-
1,
0+
1O
1Q
1M
1K
12
10
#320000
0)
0%
0&
0D
0A
0@
0]
0^
0c
0d
1q
1,!
10!
1s
0u
0x
1b
0{
0)!
1}
1'!
1"!
1%!
1$!
0/!
0,!
0&!
1#!
1(!
0*!
0h
0v
0y
1,!
00!
0U
1V
1T
1P
0G
1F
1H
1L
1R
0T
11
1-
0,
1+
1J
0H
0V
1T
0Q
1/
0-
0F
1H
0K
00
1-
0+
#340000
1)
1D
1c
1f
0i
0q
0#!
1h
1n
1v
1y
1q
1i
0R
0P
0O
0J
0L
0M
02
01
0/
1O
1P
1Q
1M
1L
1K
12
11
10
#360000
0)
1%
1&
0D
1A
1@
1]
1^
0c
0f
1#!
0s
1u
1x
0b
1{
1)!
0}
0'!
0"!
0%!
0$!
0,!
1&!
0#!
0(!
1*!
0h
0n
0v
1,!
10!
1R
1J
0R
0T
1/
0J
0H
1V
1T
0/
0-
1F
1H
1-
1+
#380000
1)
1D
1c
1d
0i
0q
0y
0,!
1/!
00!
1h
1v
1y
1i
0V
1U
0T
0Q
0P
0O
0F
1G
0H
0K
0L
0M
02
01
00
0-
1,
0+
1O
1Q
1M
1K
12
10
#400000
0)
0%
0&
1#
0$
0D
0A
0@
0?
1>
1Z
0X
0]
0^
0c
0d
1q
1,!
10!
1s
0u
0x
1b
0{
0)!
1}
1'!
1"!
1%!
1$!
0/!
0Y
0e
0g
1j
1k
1t
0m
0r
0p
0w
0-!
0.!
1x
0q
0s
1z
1u
0|
0k
0t
0,!
0&!
1#!
1(!
0*!
0h
0v
0i
1,!
00!
0u
1|
0}
1{
0U
1V
1T
1P
1}
0G
1F
1H
1L
1R
0T
0P
11
1-
0,
1+
1J
0H
0L
0V
1T
0O
01
1/
0-
0F
1H
0M
02
1-
0+
#420000
1)
1D
1c
1f
0y
0#!
1~
1#!
0R
0Q
0J
0K
00
0/
1R
1J
1/
#440000
0)
1%
1&
0'
1(
0D
1C
0B
1A
1@
1]
1^
0[
1W
0c
0f
1y
1Y
1e
0l
1g
1\
1k
1t
1m
1p
1w
1s
0z
1u
0x
1!!
1.!
0b
0{
0}
0'!
0"!
0%!
0$!
0,!
1&!
0(!
1"!
0y
1{
1)!
1x
0!!
1q
0u
0m
1i
0~
0"!
1y
1*!
1,!
10!
1Q
0#!
1K
1O
1P
0Q
0T
10
1M
1L
0K
0H
1V
1T
1Q
12
11
00
0-
1F
1H
1K
0R
10
1-
1+
0J
0/
#460000
1)
1D
1c
1d
0i
0q
0y
0,!
1/!
00!
1h
1n
1q
1i
0V
1U
0T
0Q
0P
0O
0F
1G
0H
0K
0L
0M
02
01
00
0-
1,
0+
1O
1P
1M
1L
12
11
