Proyectos/lab4/sumador-restador/simulation/qsim/SumadorRestador.msim.vcd
$comment
	File created using the following command:
		vcd file SumadorRestador.msim.vcd -direction
$end
$date
	Thu Apr 16 16:48:46 2020
$end
$version
	ModelSim Version 10.5b
$end
$timescale
	1ps
$end

$scope module lab4_vhd_vec_tst $end
$var wire 1 ! DIP_SW [1] $end
$var wire 1 " DIP_SW [2] $end
$var wire 1 # DIP_SW [3] $end
$var wire 1 $ DIP_SW [4] $end
$var wire 1 % DIP_SW [5] $end
$var wire 1 & DIP_SW [6] $end
$var wire 1 ' DIP_SW [7] $end
$var wire 1 ( DIP_SW [8] $end
$var wire 1 ) KEY_EX [0] $end
$var wire 1 * KEY_EX [1] $end
$var wire 1 + LED [7] $end
$var wire 1 , LED [6] $end
$var wire 1 - LED [5] $end
$var wire 1 . LED [4] $end
$var wire 1 / LED [3] $end
$var wire 1 0 LED [2] $end
$var wire 1 1 LED [1] $end
$var wire 1 2 LED [0] $end

$scope module i1 $end
$var wire 1 3 gnd $end
$var wire 1 4 vcc $end
$var wire 1 5 unknown $end
$var wire 1 6 devoe $end
$var wire 1 7 devclrn $end
$var wire 1 8 devpor $end
$var wire 1 9 ww_devoe $end
$var wire 1 : ww_devclrn $end
$var wire 1 ; ww_devpor $end
$var wire 1 < ww_DIP_SW [1] $end
$var wire 1 = ww_DIP_SW [2] $end
$var wire 1 > ww_DIP_SW [3] $end
$var wire 1 ? ww_DIP_SW [4] $end
$var wire 1 @ ww_DIP_SW [5] $end
$var wire 1 A ww_DIP_SW [6] $end
$var wire 1 B ww_DIP_SW [7] $end
$var wire 1 C ww_DIP_SW [8] $end
$var wire 1 D ww_KEY_EX [0] $end
$var wire 1 E ww_KEY_EX [1] $end
$var wire 1 F ww_LED [7] $end
$var wire 1 G ww_LED [6] $end
$var wire 1 H ww_LED [5] $end
$var wire 1 I ww_LED [4] $end
$var wire 1 J ww_LED [3] $end
$var wire 1 K ww_LED [2] $end
$var wire 1 L ww_LED [1] $end
$var wire 1 M ww_LED [0] $end
$var wire 1 N \KEY_EX[1]~input_o\ $end
$var wire 1 O \LED[0]~output_o\ $end
$var wire 1 P \LED[1]~output_o\ $end
$var wire 1 Q \LED[2]~output_o\ $end
$var wire 1 R \LED[3]~output_o\ $end
$var wire 1 S \LED[4]~output_o\ $end
$var wire 1 T \LED[5]~output_o\ $end
$var wire 1 U \LED[6]~output_o\ $end
$var wire 1 V \LED[7]~output_o\ $end
$var wire 1 W \DIP_SW[8]~input_o\ $end
$var wire 1 X \KEY_EX[0]~input_o\ $end
$var wire 1 Y \o|Add0~0_combout\ $end
$var wire 1 Z \DIP_SW[4]~input_o\ $end
$var wire 1 [ \o|Add0~2_cout\ $end
$var wire 1 \ \o|Add0~3_combout\ $end
$var wire 1 ] \DIP_SW[7]~input_o\ $end
$var wire 1 ^ \o|Add0~5_combout\ $end
$var wire 1 _ \DIP_SW[3]~input_o\ $end
$var wire 1 ` \o|Add0~4\ $end
$var wire 1 a \o|Add0~6_combout\ $end
$var wire 1 b \DIP_SW[2]~input_o\ $end
$var wire 1 c \DIP_SW[6]~input_o\ $end
$var wire 1 d \o|Add0~8_combout\ $end
$var wire 1 e \o|Add0~7\ $end
$var wire 1 f \o|Add0~9_combout\ $end
$var wire 1 g \DIP_SW[5]~input_o\ $end
$var wire 1 h \o|Add0~11_combout\ $end
$var wire 1 i \DIP_SW[1]~input_o\ $end
$var wire 1 j \o|Add0~10\ $end
$var wire 1 k \o|Add0~12_combout\ $end
$var wire 1 l \o|Add0~13\ $end
$var wire 1 m \o|Add0~14_combout\ $end
$var wire 1 n \o|Overflow~combout\ $end
$var wire 1 o \o|Sig~0_combout\ $end
$var wire 1 p \o|Sig~1_combout\ $end
$var wire 1 q \o|Sig~2_combout\ $end
$upscope $end
$upscope $end
$enddefinitions $end
#0
$dumpvars
03
14
x5
16
17
18
19
1:
1;
xN
1O
1P
1Q
0R
0S
0T
0U
0V
0W
0X
0Y
1Z
0[
1\
1]
1^
0_
1`
1a
1b
0c
0d
0e
1f
0g
0h
0i
1j
0k
0l
0m
0n
1o
0p
0q
0!
1"
0#
1$
0%
0&
1'
0(
0)
x*
0<
1=
0>
1?
0@
0A
1B
0C
0D
xE
0F
0G
0H
0I
0J
1K
1L
1M
0+
0,
0-
0.
0/
10
11
12
$end
#250
1)
1D
1X
1Y
1[
0^
1d
1h
1m
1n
1k
0f
0j
0a
0`
1a
0k
1l
1V
0m
1F
0P
0Q
1R
1T
1+
0n
0L
0K
1J
1H
0R
1P
01
00
1/
1-
0J
1L
0V
11
0/
0F
0T
0+
0H
0-
#500
0)
1%
1&
0D
1A
1@
1g
1c
0X
0Y
0[
1^
1m
1p
1n
0n
0a
1e
1`
1a
0e
1f
1T
1V
0f
1H
1F
0P
0T
1-
1+
0L
0H
1Q
1P
01
0-
1K
1L
0Q
11
10
0K
00
#750
1)
1D
1X
1Y
1[
0^
0d
0h
0m
1q
1n
1k
0l
1f
1j
0a
0`
1a
0k
1m
1U
0V
0n
1G
0F
0P
1Q
1R
1T
1,
0+
0L
1K
1J
1H
1V
0R
1P
01
10
1/
1-
1F
0J
1L
0T
11
0/
1+
0H
0-
#1000
0)
0%
0&
0$
0D
0A
0@
0?
0Z
0g
0c
0X
0Y
0[
1^
0m
0p
1n
0q
0\
0n
0a
1e
1`
1a
0e
0f
0j
0O
0U
1T
0V
1k
1f
1j
0M
0G
1H
0F
0P
0T
02
1-
0,
0+
0k
0L
0H
0Q
1P
01
0-
0K
1L
1Q
1R
11
00
1K
1J
0R
10
1/
0J
0/
#1250
1)
1D
1X
1Y
1[
0^
1d
1h
1m
1n
1k
0f
0j
0a
0`
1a
0k
1l
1V
0m
1F
0P
0Q
1R
1T
1+
0n
0L
0K
1J
1H
0R
1P
01
00
1/
1-
0J
1L
0V
11
0/
0F
0T
0+
0H
0-
#1500
0)
1%
1&
0D
1A
1@
1g
1c
0X
0Y
0[
1^
1m
1p
1n
0n
0a
1e
1`
1a
0e
1f
1T
1V
0f
1H
1F
0P
0T
1-
1+
0L
0H
1Q
1P
01
0-
1K
1L
0Q
11
10
0K
00
#1750
1)
1D
1X
1Y
1[
0^
0d
0h
0m
1q
1n
1k
0l
1f
1j
0a
0`
1a
0k
1m
1U
0V
0n
1G
0F
0P
1Q
1R
1T
1,
0+
0L
1K
1J
1H
1V
0R
1P
01
10
1/
1-
1F
0J
1L
0T
11
0/
1+
0H
0-
#2000
0)
0%
0&
1$
1#
0D
0A
0@
1?
1>
1_
1Z
0g
0c
0X
0Y
0[
1^
0m
0p
1n
0q
1\
0a
1e
0o
0f
0j
0n
1a
1`
0a
1k
0P
1O
0U
1T
0V
0L
1M
0G
1H
0F
1P
0T
0Q
12
01
1-
0,
0+
1L
0H
0K
1R
0P
11
00
0-
1J
0L
01
1/
#2250
1)
1D
1X
1Y
1[
0^
1d
1h
1m
1n
0k
1l
1f
1a
0e
0`
0a
1e
0f
0m
1V
0n
1f
1F
1P
1Q
0R
1T
1+
1L
1K
0J
1H
0V
0Q
0P
11
10
0/
1-
0F
0K
0L
1Q
0T
01
00
0+
1K
0H
10
0-
#2500
0)
1%
1&
0D
1A
1@
1g
1c
0X
0Y
0[
1^
1m
1n
0n
1a
1`
0a
1T
1V
1H
1F
1P
0T
1-
1+
1L
0H
0P
11
0-
0L
01
#2750
1)
1D
1X
1Y
1[
0^
0d
0h
0m
1q
1n
1k
0l
0f
1a
0e
0`
0a
1e
1f
1j
1m
1U
0V
0n
0k
0f
0j
1G
0F
1P
0Q
1R
1T
1,
0+
1k
1L
0K
1J
1H
1V
1Q
0P
11
00
1/
1-
1F
1K
0L
0Q
0R
0T
01
10
1+
0K
0J
0H
1R
00
0/
0-
1J
1/
#3000
0)
0%
0&
0#
1!
0"
0D
0A
0@
0>
0=
1<
1i
0b
0_
0g
0c
0X
0Y
0[
1^
0m
1a
0e
1o
1f
1j
0k
1l
0q
1m
1k
0l
1p
0f
1n
0a
1e
1`
1a
0e
1f
0m
0n
0U
0R
1Q
1P
0V
1n
0f
0G
0J
1K
1L
0F
0P
1T
0Q
1R
1V
11
10
0/
0,
0+
0L
1H
0K
1J
1F
0T
0V
1Q
1P
01
00
1/
1-
1+
0H
0F
1K
1L
0Q
1T
11
10
0-
0+
0K
1H
00
1-
#3250
1)
1D
1X
1Y
1[
0^
1d
1h
1m
0n
0k
1l
1f
0a
0`
1a
0m
1V
1n
1F
0P
1Q
0R
0T
1+
0L
1K
0J
0H
0V
1P
01
10
0/
0-
0F
1L
1T
11
0+
1H
1-
#3500
0)
1%
1&
0D
1A
1@
1g
1c
0X
0Y
0[
1^
1m
0n
1n
0a
1e
1`
1a
0e
0f
0j
0T
1V
1k
1f
1j
0H
1F
0P
1T
0-
1+
0k
0L
1H
0Q
1P
01
1-
0K
1L
1Q
1R
11
00
1K
1J
0R
10
1/
0J
0/
#3750
1)
1D
1X
1Y
1[
0^
0d
0h
0m
1q
0n
1k
0l
0f
0a
0`
1a
1m
1U
0V
1n
1G
0F
0P
0Q
1R
0T
1,
0+
0L
0K
1J
0H
1V
1P
01
00
1/
0-
1F
1L
1T
11
1+
1H
1-
#4000
0)
0%
0&
0!
0$
0D
0A
0@
0?
0<
0i
0Z
0g
0c
0X
0Y
0[
1^
0m
0\
0k
0q
0n
0a
1e
1`
1a
0e
1f
0U
0R
0O
0V
0f
0G
0J
0M
0F
0P
0T
02
0/
0,
0+
0L
0H
1Q
1P
01
0-
1K
1L
0Q
11
10
0K
00
#4250
1)
1D
1X
1Y
1[
0^
1d
1h
1m
1q
1n
1k
1f
0a
0`
1a
1U
1V
1G
1F
0P
1Q
1R
1T
1,
1+
0L
1K
1J
1H
1P
01
10
1/
1-
1L
11
#4500
0)
1%
1&
0D
1A
1@
1g
1c
0X
0Y
0[
1^
0m
0n
0q
1n
0a
1e
1`
1a
0e
0f
0j
0U
0T
0V
0k
1l
1f
1j
0G
0H
0F
0P
1T
0-
0,
0+
1k
0l
1m
0L
1H
0Q
1P
01
1-
0n
0m
0K
1L
1Q
0R
11
00
1n
1K
0J
1V
1R
10
0/
1F
1J
0V
0T
1/
1+
0F
0H
1T
0-
0+
1H
1-
#4750
1)
1D
1X
1Y
1[
0^
0d
0h
1m
1q
0n
0k
0f
0a
0`
1a
1U
1V
1G
1F
0P
0Q
0R
0T
1,
1+
0L
0K
0J
0H
1P
01
00
0/
0-
1L
11
#5000
0)
0%
0&
0D
0A
0@
0g
0c
0X
0Y
0[
1^
0m
1n
0q
0n
0a
1e
1`
1a
0e
1f
0U
1T
0V
0f
0G
1H
0F
0P
0T
1-
0,
0+
0L
0H
1Q
1P
01
0-
1K
1L
0Q
11
10
0K
00
#5250
1)
1D
1X
1Y
1[
0^
1d
1h
1m
1q
1n
1k
1f
0a
0`
1a
1U
1V
1G
1F
0P
1Q
1R
1T
1,
1+
0L
1K
1J
1H
1P
01
10
1/
1-
1L
11
#5500
0)
1%
1&
0D
1A
1@
1g
1c
0X
0Y
0[
1^
0m
0n
0q
1n
0a
1e
1`
1a
0e
0f
0j
0U
0T
0V
0k
1l
1f
1j
0G
0H
0F
0P
1T
0-
0,
0+
1k
0l
1m
0L
1H
0Q
1P
01
1-
0n
0m
0K
1L
1Q
0R
11
00
1n
1K
0J
1V
1R
10
0/
1F
1J
0V
0T
1/
1+
0F
0H
1T
0-
0+
1H
1-
#5750
1)
1D
1X
1Y
1[
0^
0d
0h
1m
1q
0n
0k
0f
0a
0`
1a
1U
1V
1G
1F
0P
0Q
0R
0T
1,
1+
0L
0K
0J
0H
1P
01
00
0/
0-
1L
11
#6000
0)
0%
0&
0D
0A
0@
0g
0c
0X
0Y
0[
1^
0m
1n
0q
0n
0a
1e
1`
1a
0e
1f
0U
1T
0V
0f
0G
1H
0F
0P
0T
1-
0,
0+
0L
0H
1Q
1P
01
0-
1K
1L
0Q
11
10
0K
00
#6250
1)
1D
1X
1Y
1[
0^
1d
1h
1m
1q
1n
1k
1f
0a
0`
1a
1U
1V
1G
1F
0P
1Q
1R
1T
1,
1+
0L
1K
1J
1H
1P
01
10
1/
1-
1L
11
#6500
0)
1%
1&
0D
1A
1@
1g
1c
0X
0Y
0[
1^
0m
0n
0q
1n
0a
1e
1`
1a
0e
0f
0j
0U
0T
0V
0k
1l
1f
1j
0G
0H
0F
0P
1T
0-
0,
0+
1k
0l
1m
0L
1H
0Q
1P
01
1-
0n
0m
0K
1L
1Q
0R
11
00
1n
1K
0J
1V
1R
10
0/
1F
1J
0V
0T
1/
1+
0F
0H
1T
0-
0+
1H
1-
#6750
1)
1D
1X
1Y
1[
0^
0d
0h
1m
1q
0n
0k
0f
0a
0`
1a
1U
1V
1G
1F
0P
0Q
0R
0T
1,
1+
0L
0K
0J
0H
1P
01
00
0/
0-
1L
11
#7000
0)
0%
0&
0D
0A
0@
0g
0c
0X
0Y
0[
1^
0m
1n
0q
0n
0a
1e
1`
1a
0e
1f
0U
1T
0V
0f
0G
1H
0F
0P
0T
1-
0,
0+
0L
0H
1Q
1P
01
0-
1K
1L
0Q
11
10
0K
00
#7250
1)
1D
1X
1Y
1[
0^
1d
1h
1m
1q
1n
1k
1f
0a
0`
1a
1U
1V
1G
1F
0P
1Q
1R
1T
1,
1+
0L
1K
1J
1H
1P
01
10
1/
1-
1L
11
#7500
0)
1%
1&
0D
1A
1@
1g
1c
0X
0Y
0[
1^
0m
0n
0q
1n
0a
1e
1`
1a
0e
0f
0j
0U
0T
0V
0k
1l
1f
1j
0G
0H
0F
0P
1T
0-
0,
0+
1k
0l
1m
0L
1H
0Q
1P
01
1-
0n
0m
0K
1L
1Q
0R
11
00
1n
1K
0J
1V
1R
10
0/
1F
1J
0V
0T
1/
1+
0F
0H
1T
0-
0+
1H
1-
#7750
1)
1D
1X
1Y
1[
0^
0d
0h
1m
1q
0n
0k
0f
0a
0`
1a
1U
1V
1G
1F
0P
0Q
0R
0T
1,
1+
0L
0K
0J
0H
1P
01
00
0/
0-
1L
11
#8000
0)
0%
0&
0D
0A
0@
0g
0c
0X
0Y
0[
1^
0m
1n
0q
0n
0a
1e
1`
1a
0e
1f
0U
1T
0V
0f
0G
1H
0F
0P
0T
1-
0,
0+
0L
0H
1Q
1P
01
0-
1K
1L
0Q
11
10
0K
00
#8250
1)
1D
1X
1Y
1[
0^
1d
1h
1m
1q
1n
1k
1f
0a
0`
1a
1U
1V
1G
1F
0P
1Q
1R
1T
1,
1+
0L
1K
1J
1H
1P
01
10
1/
1-
1L
11
#8500
0)
1%
1&
0D
1A
1@
1g
1c
0X
0Y
0[
1^
0m
0n
0q
1n
0a
1e
1`
1a
0e
0f
0j
0U
0T
0V
0k
1l
1f
1j
0G
0H
0F
0P
1T
0-
0,
0+
1k
0l
1m
0L
1H
0Q
1P
01
1-
0n
0m
0K
1L
1Q
0R
11
00
1n
1K
0J
1V
1R
10
0/
1F
1J
0V
0T
1/
1+
0F
0H
1T
0-
0+
1H
1-
#8750
1)
1D
1X
1Y
1[
0^
0d
0h
1m
1q
0n
0k
0f
0a
0`
1a
1U
1V
1G
1F
0P
0Q
0R
0T
1,
1+
0L
0K
0J
0H
1P
01
00
0/
0-
1L
11
#9000
0)
0%
0&
0D
0A
0@
0g
0c
0X
0Y
0[
1^
0m
1n
0q
0n
0a
1e
1`
1a
0e
1f
0U
1T
0V
0f
0G
1H
0F
0P
0T
1-
0,
0+
0L
0H
1Q
1P
01
0-
1K
1L
0Q
11
10
0K
00
#9250
1)
1D
1X
1Y
1[
0^
1d
1h
1m
1q
1n
1k
1f
0a
0`
1a
1U
1V
1G
1F
0P
1Q
1R
1T
1,
1+
0L
1K
1J
1H
1P
01
10
1/
1-
1L
11
#9500
0)
1%
1&
0D
1A
1@
1g
1c
0X
0Y
0[
1^
0m
0n
0q
1n
0a
1e
1`
1a
0e
0f
0j
0U
0T
0V
0k
1l
1f
1j
0G
0H
0F
0P
1T
0-
0,
0+
1k
0l
1m
0L
1H
0Q
1P
01
1-
0n
0m
0K
1L
1Q
0R
11
00
1n
1K
0J
1V
1R
10
0/
1F
1J
0V
0T
1/
1+
0F
0H
1T
0-
0+
1H
1-
#9750
1)
1D
1X
1Y
1[
0^
0d
0h
1m
1q
0n
0k
0f
0a
0`
1a
1U
1V
1G
1F
0P
0Q
0R
0T
1,
1+
0L
0K
0J
0H
1P
01
00
0/
0-
1L
11
#10000
0)
0%
0&
0D
0A
0@
0g
0c
0X
0Y
0[
1^
0m
1n
0q
0n
0a
1e
1`
1a
0e
1f
0U
1T
0V
0f
0G
1H
0F
0P
0T
1-
0,
0+
0L
0H
1Q
1P
01
0-
1K
1L
0Q
11
10
0K
00
#10250
1)
1D
1X
1Y
1[
0^
1d
1h
1m
1q
1n
1k
1f
0a
0`
1a
1U
1V
1G
1F
0P
1Q
1R
1T
1,
1+
0L
1K
1J
1H
1P
01
10
1/
1-
1L
11
#10500
0)
1%
1&
0D
1A
1@
1g
1c
0X
0Y
0[
1^
0m
0n
0q
1n
0a
1e
1`
1a
0e
0f
0j
0U
0T
0V
0k
1l
1f
1j
0G
0H
0F
0P
1T
0-
0,
0+
1k
0l
1m
0L
1H
0Q
1P
01
1-
0n
0m
0K
1L
1Q
0R
11
00
1n
1K
0J
1V
1R
10
0/
1F
1J
0V
0T
1/
1+
0F
0H
1T
0-
0+
1H
1-
#10750
1)
1D
1X
1Y
1[
0^
0d
0h
1m
1q
0n
0k
0f
0a
0`
1a
1U
1V
1G
1F
0P
0Q
0R
0T
1,
1+
0L
0K
0J
0H
1P
01
00
0/
0-
1L
11
#11000
0)
0%
0&
0D
0A
0@
0g
0c
0X
0Y
0[
1^
0m
1n
0q
0n
0a
1e
1`
1a
0e
1f
0U
1T
0V
0f
0G
1H
0F
0P
0T
1-
0,
0+
0L
0H
1Q
1P
01
0-
1K
1L
0Q
11
10
0K
00
#11250
1)
1D
1X
1Y
1[
0^
1d
1h
1m
1q
1n
1k
1f
0a
0`
1a
1U
1V
1G
1F
0P
1Q
1R
1T
1,
1+
0L
1K
1J
1H
1P
01
10
1/
1-
1L
11
#11500
0)
1%
1&
0D
1A
1@
1g
1c
0X
0Y
0[
1^
0m
0n
0q
1n
0a
1e
1`
1a
0e
0f
0j
0U
0T
0V
0k
1l
1f
1j
0G
0H
0F
0P
1T
0-
0,
0+
1k
0l
1m
0L
1H
0Q
1P
01
1-
0n
0m
0K
1L
1Q
0R
11
00
1n
1K
0J
1V
1R
10
0/
1F
1J
0V
0T
1/
1+
0F
0H
1T
0-
0+
1H
1-
#11750
1)
1D
1X
1Y
1[
0^
0d
0h
1m
1q
0n
0k
0f
0a
0`
1a
1U
1V
1G
1F
0P
0Q
0R
0T
1,
1+
0L
0K
0J
0H
1P
01
00
0/
0-
1L
11
#12000
0)
0%
0&
0D
0A
0@
0g
0c
0X
0Y
0[
1^
0m
1n
0q
0n
0a
1e
1`
1a
0e
1f
0U
1T
0V
0f
0G
1H
0F
0P
0T
1-
0,
0+
0L
0H
1Q
1P
01
0-
1K
1L
0Q
11
10
0K
00
#12250
1)
1D
1X
1Y
1[
0^
1d
1h
1m
1q
1n
1k
1f
0a
0`
1a
1U
1V
1G
1F
0P
1Q
1R
1T
1,
1+
0L
1K
1J
1H
1P
01
10
1/
1-
1L
11
#12500
0)
1%
1&
0D
1A
1@
1g
1c
0X
0Y
0[
1^
0m
0n
0q
1n
0a
1e
1`
1a
0e
0f
0j
0U
0T
0V
0k
1l
1f
1j
0G
0H
0F
0P
1T
0-
0,
0+
1k
0l
1m
0L
1H
0Q
1P
01
1-
0n
0m
0K
1L
1Q
0R
11
00
1n
1K
0J
1V
1R
10
0/
1F
1J
0V
0T
1/
1+
0F
0H
1T
0-
0+
1H
1-
#12750
1)
1D
1X
1Y
1[
0^
0d
0h
1m
1q
0n
0k
0f
0a
0`
1a
1U
1V
1G
1F
0P
0Q
0R
0T
1,
1+
0L
0K
0J
0H
1P
01
00
0/
0-
1L
11
#13000
0)
0%
0&
0D
0A
0@
0g
0c
0X
0Y
0[
1^
0m
1n
0q
0n
0a
1e
1`
1a
0e
1f
0U
1T
0V
0f
0G
1H
0F
0P
0T
1-
0,
0+
0L
0H
1Q
1P
01
0-
1K
1L
0Q
11
10
0K
00
#13250
1)
1D
1X
1Y
1[
0^
1d
1h
1m
1q
1n
1k
1f
0a
0`
1a
1U
1V
1G
1F
0P
1Q
1R
1T
1,
1+
0L
1K
1J
1H
1P
01
10
1/
1-
1L
11
#13500
0)
1%
1&
0D
1A
1@
1g
1c
0X
0Y
0[
1^
0m
0n
0q
1n
0a
1e
1`
1a
0e
0f
0j
0U
0T
0V
0k
1l
1f
1j
0G
0H
0F
0P
1T
0-
0,
0+
1k
0l
1m
0L
1H
0Q
1P
01
1-
0n
0m
0K
1L
1Q
0R
11
00
1n
1K
0J
1V
1R
10
0/
1F
1J
0V
0T
1/
1+
0F
0H
1T
0-
0+
1H
1-
#13750
1)
1D
1X
1Y
1[
0^
0d
0h
1m
1q
0n
0k
0f
0a
0`
1a
1U
1V
1G
1F
0P
0Q
0R
0T
1,
1+
0L
0K
0J
0H
1P
01
00
0/
0-
1L
11
#14000
0)
0%
0&
0D
0A
0@
0g
0c
0X
0Y
0[
1^
0m
1n
0q
0n
0a
1e
1`
1a
0e
1f
0U
1T
0V
0f
0G
1H
0F
0P
0T
1-
0,
0+
0L
0H
1Q
1P
01
0-
1K
1L
0Q
11
10
0K
00
#14250
1)
1D
1X
1Y
1[
0^
1d
1h
1m
1q
1n
1k
1f
0a
0`
1a
1U
1V
1G
1F
0P
1Q
1R
1T
1,
1+
0L
1K
1J
1H
1P
01
10
1/
1-
1L
11
#14500
0)
1%
1&
0D
1A
1@
1g
1c
0X
0Y
0[
1^
0m
0n
0q
1n
0a
1e
1`
1a
0e
0f
0j
0U
0T
0V
0k
1l
1f
1j
0G
0H
0F
0P
1T
0-
0,
0+
1k
0l
1m
0L
1H
0Q
1P
01
1-
0n
0m
0K
1L
1Q
0R
11
00
1n
1K
0J
1V
1R
10
0/
1F
1J
0V
0T
1/
1+
0F
0H
1T
0-
0+
1H
1-
#14750
1)
1D
1X
1Y
1[
0^
0d
0h
1m
1q
0n
0k
0f
0a
0`
1a
1U
1V
1G
1F
0P
0Q
0R
0T
1,
1+
0L
0K
0J
0H
1P
01
00
0/
0-
1L
11
